<svg xmlns="http://www.w3.org/2000/svg" width="325.863" height="266.214" viewBox="0 0 325.863 266.214">
  <g id="Group_2191" data-name="Group 2191" transform="translate(-5213.031 3179.302)">
    <g id="Layer_2" data-name="Layer 2" transform="translate(5213.031 -3179.302)">
      <g id="Слой_1" data-name="Слой 1" transform="translate(0 0)">
        <g id="_1" data-name="1">
          <g id="CHAIR" transform="translate(15.627 163.361)">
            <rect id="Rectangle_70" data-name="Rectangle 70" width="73.922" height="15.842" rx="7.921" fill="#fff"/>
            <path id="Path_465" data-name="Path 465" d="M100.1,981.6h0a.484.484,0,0,1-.49-.542l11.92-84.7h38.841l-49.839,85A.5.5,0,0,1,100.1,981.6Z" transform="translate(-95.316 -880.508)" fill="none"/>
            <path id="Path_466" data-name="Path 466" d="M212.5,981.6h0a.48.48,0,0,0,.486-.548l-13.9-84.7H160.24l51.837,85.012a.5.5,0,0,0,.424.234Z" transform="translate(-143.83 -880.508)" fill="none"/>
          </g>
          <g id="WOMAN">
            <g id="LEGS" transform="translate(22.54 119.141)">
              <g id="RIGHT_FOOT" data-name="RIGHT FOOT" transform="translate(71.817 113.431)">
                <path id="Path_467" data-name="Path 467" d="M486.07,1163.3a59.612,59.612,0,0,0,12.261.306c-1.336,5.154-1.949,10.082-2.921,14.461-.628,2.819,3.2,6.635,4.358,9.4a.963.963,0,0,0-.09-.042c-5.306-.846-12.411,4.172-11.68-3.661C488.7,1175.919,486.936,1170.167,486.07,1163.3Z" transform="translate(-483.249 -1163.3)" fill="#b65a18"/>
                <path id="SHOE" d="M476.87,1236.8c-1.825,0-5.186,3.3-4.892,8.575a41.383,41.383,0,0,0,1.535,9.2H494.8c1-7.543-6.416-8.357-6.416-8.357-5.308-.846-12.145,4.172-11.414-3.659Z" transform="translate(-471.96 -1222.106)" fill="#642648"/>
              </g>
              <g id="LEFT_FOOT" data-name="LEFT FOOT" transform="translate(59.22 113.631)">
                <path id="Path_468" data-name="Path 468" d="M412.07,1164.3a78.287,78.287,0,0,0,13.661.106,115.153,115.153,0,0,0-2.121,14.461c-.628,2.819,3.2,6.635,4.358,9.4a.915.915,0,0,0-.09-.042c-5.306-.846-12.411,4.172-11.68-3.661C416.9,1176.719,412.07,1164.3,412.07,1164.3Z" transform="translate(-411.446 -1164.3)" fill="#c36f0b"/>
                <path id="SHOE-2" data-name="SHOE" d="M413.461,1236.8c-1.825,0-4.786,3.3-4.492,8.575a41.387,41.387,0,0,0,1.535,9.2H431.8c1-7.543-6.416-8.357-6.416-8.357-5.308-.846-12.145,4.172-11.414-3.659Z" transform="translate(-408.948 -1222.306)" fill="#722d54"/>
              </g>
              <g id="LEGS-2" data-name="LEGS">
                <path id="Path_469" data-name="Path 469" d="M129.8,595.93s-18.3,22.142-16.994,36.908,16.468,19.133,44.383,18.807c0,0,.818,22.15,15.314,57.978a48.156,48.156,0,0,0,14.994,0,61.533,61.533,0,0,0,12.2-.034s11.084-72.443,9.736-79.79c-1.785-9.736-37.066-18.519-46.2-20.628l-7.635-13.241S140.264,597.877,129.8,595.93Z" transform="translate(-112.738 -595.93)" fill="#3f4d90"/>
                <path id="Path_470" data-name="Path 470" d="M300.64,705s29.261,7.677,32.834,17.088,3.755,75.6,3.755,75.6" transform="translate(-263.074 -683.194)" fill="none"/>
              </g>
            </g>
            <g id="BLOUSE" transform="translate(16.712 55.687)">
              <path id="Path_471" data-name="Path 471" d="M141.776,314.287s-1.136,15.82-9.576,27.746c0,0-13.795,2.353-25.79,0,0,0-11.886-12.5-15.292-26.046,0,0-11.318-22.955-6.2-26.85s17.859-10.6,17.859-10.6l25.912,1.272c3.2,1.943,10.018,5.12,16.834,8.689Z" transform="translate(-83.589 -278.54)" fill="#4385f5"/>
              <circle id="Ellipse_59" data-name="Ellipse 59" cx="1.869" cy="1.869" r="1.869" transform="translate(35.319 26.756)" fill="#f0e1d4"/>
              <circle id="Ellipse_60" data-name="Ellipse 60" cx="1.869" cy="1.869" r="1.869" transform="translate(35.319 34.321)" fill="#f0e1d4"/>
              <circle id="Ellipse_61" data-name="Ellipse 61" cx="1.869" cy="1.869" r="1.869" transform="translate(35.319 41.884)" fill="#f0e1d4"/>
            </g>
            <g id="RIGHT_HAND" data-name="RIGHT HAND" transform="translate(49.262 65.645)">
              <path id="Path_472" data-name="Path 472" d="M378.363,328.35c6.813,3.571,26.862,49.521,18.519,54.38-17.325,10.1-22.252-28.589-22.252-28.589Z" transform="translate(-348.994 -328.35)" fill="#4385f5"/>
              <path id="Path_473" data-name="Path 473" d="M434.166,549.632c2.339,1,8.375-.842,15.082-5.236s-.9-7.3-.9-7.3-8.917-3.579-14.357-1S429.686,547.7,434.166,549.632Z" transform="translate(-393.567 -493.819)" fill="#b65a18"/>
              <path id="Path_474" data-name="Path 474" d="M323.207,495.39H286.585l-40.185,26.3h36.62Z" transform="translate(-246.4 -461.995)" fill="#fff"/>
              <path id="Path_475" data-name="Path 475" d="M525.365,529.942c0-.956-6.074-6.578-8.4-4.454-.974.888-1.03,8.511-.94,9.886C516.313,539.752,525.315,534.844,525.365,529.942Z" transform="translate(-462.099 -485.695)" fill="#c36f0b"/>
            </g>
            <g id="LEFT_HAND" data-name="LEFT HAND" transform="translate(0 65.179)">
              <path id="Path_476" data-name="Path 476" d="M18.023,327.123C15.942,328.774-6.154,362.413,1.665,377.9c8.821,17.485,44.655,2.967,44.655,2.967s-4.546-1.4-1.625-7.241c0,0-14.826-7.889-26.752-5.536,0,0,9.249-15.334,10.222-21.338S25.488,321.2,18.023,327.123Z" transform="translate(0.002 -326.019)" fill="#4385f5"/>
              <line id="Line_77" data-name="Line 77" x2="6.53" y2="14.585" transform="translate(54.068 37.374)" fill="none"/>
              <g id="ARM" transform="translate(43.335 44.485)">
                <path id="Path_477" data-name="Path 477" d="M218.128,551.184s6.572-3.747,9.2-2.343c2.877,1.535,6.328,6.4,6.644,7.215a5.938,5.938,0,0,1,.176,2.543c-.05.876-6,.826-7.141.76s-7.281.662-8.353-.388A5.58,5.58,0,0,1,218.128,551.184Z" transform="translate(-216.756 -548.526)" fill="#c36f0b"/>
                <path id="Path_478" data-name="Path 478" d="M268,560.642c1.152.066,6.41.132,7.079-.492,1.329-1.234.568-3.077-.1-3.8-.61-.664-3.855-4.692-6.66-6.222,0,0,3.253,5.66-.322,10.518" transform="translate(-257.755 -549.809)" fill="#b65a18"/>
              </g>
            </g>
            <g id="HEAD" transform="translate(14.571)">
              <g id="HAIR">
                <path id="Path_479" data-name="Path 479" d="M101.08,13.548s-2.921-4.706,0-7.139S105.2.026,110.491,0c5.462-.026,7.641,4.232,10.142,3.813,3.4-.57,5.782-1.665,10.1.612,3.455,1.823,3.6,8.659,7.1,8.313,2.787-.274,5.882-.1,7.463,3,1.2,2.345-.08,8.681,1.7,10.384s6,2.259,6.33,6.652c.44,5.936-5.758,6.809-4.138,11.522,2.131,6.2-.876,10.088-6.166,10.8-3.721.494-10.258-5.038-12.655-1.218-2.045,3.257-6.33,4.706-11.6,2.6s-8.519-1.461-11.764-.082-7.221,3.325-9.9.972-5.908-2.419-9.472-.946c-4.946,2.045-10.254-1.318-9.6-5.786.546-3.693-4.522-4.158-5.11-8.357-.768-5.484,7.3-6.9,4.948-9.249s-2.269-9.233,4.7-10.144c6.614-.86,5.2-4.98,7.063-7.8A7.866,7.866,0,0,1,101.08,13.548Z" transform="translate(-72.881 0.001)" fill="#722d54"/>
                <path id="Path_480" data-name="Path 480" d="M79.285,75.4c-2.2-2.491-1.5-10.156,5.516-10.634,6.653-.452,5.49-4.652,7.527-7.341,1.715-2.261,7.465-4.96,12.907-.238" transform="translate(-77.118 -43.665)" fill="none"/>
              </g>
              <g id="NECK" transform="translate(21.314 33.765)">
                <path id="Path_481" data-name="Path 481" d="M187.319,168.9c-.05,4.2.212,15.776-7.829,21.912,0,0,14.439,7.251,17.7,23.315,0,0,2.293-16.932,8.215-22.044,0,0-7.017-3.979-5.476-23.191Z" transform="translate(-179.49 -168.89)" fill="#c36f0b"/>
                <path id="Path_482" data-name="Path 482" d="M232.507,185.568a4.969,4.969,0,0,1-3.351,1.419c-5.066,0-10.11-7.717-10.6-15.968.016-.812.016-1.519.024-2.089h12.607C230.557,176.741,231.347,182.037,232.507,185.568Z" transform="translate(-210.749 -168.922)" fill="#b65a18"/>
              </g>
              <path id="HEAD-2" data-name="HEAD" d="M216.349,98.914c.056-2.111.8-13.143,9.734-12.737s10.384,9.41,9.584,16.632-5.2,12.087-8.275,11.764S216.1,107.838,216.349,98.914Z" transform="translate(-187.662 -68.939)" fill="#c36f0b"/>
            </g>
          </g>
        </g>
      </g>
    </g>
    <g id="Layer_2-2" data-name="Layer 2" transform="translate(5341.182 -3179.302)">
      <g id="Слой_1-2" data-name="Слой 1" transform="translate(0 0)">
        <g id="_2" data-name="2">
          <g id="COMPUTER" transform="translate(0 18.853)">
            <path id="Path_483" data-name="Path 483" d="M59,508.14h85.626a3.549,3.549,0,0,1,3.551,3.549v.94a3.551,3.551,0,0,1-3.551,3.549H59.174" transform="translate(-47.801 -425.703)" fill="#2c2e39"/>
            <path id="Path_484" data-name="Path 484" d="M385.24,588.289V549h7.731v39.109" transform="translate(-308.818 -458.394)" fill="#2c2e39"/>
            <path id="Path_485" data-name="Path 485" d="M385.24,551.467V549h7.731v8.575Z" transform="translate(-308.818 -458.394)" fill="#2c2e39"/>
            <path id="Path_486" data-name="Path 486" d="M385.24,585.29V549h7.731v38.729" transform="translate(-308.818 -458.394)" fill="none"/>
            <path id="Path_487" data-name="Path 487" d="M173.888,346.234v2.175l-31.434-7.639L111.02,348.41v-2.175l28.143-9.121V310.19h6.991v27.058Z" transform="translate(-89.421 -267.328)" fill="#2c2e39"/>
            <path id="Path_488" data-name="Path 488" d="M104.977,156.953H15.435a2.093,2.093,0,0,1-2-2.035,3.548,3.548,0,0,0-.04-.354L3.031,98.4A2.287,2.287,0,0,1,3.185,97a2,2,0,0,1,1.787-1.2H94.515a2.094,2.094,0,0,1,2,2.037,3.44,3.44,0,0,0,.04.352l10.36,56.167a2.289,2.289,0,0,1-.154,1.4,2,2,0,0,1-1.783,1.2Z" transform="translate(-2.984 -95.8)" fill="#2c2e39"/>
            <path id="Path_489" data-name="Path 489" d="M113.062,163.711H27.642A1.944,1.944,0,0,1,25.8,161.68l-9.6-52.028a1.945,1.945,0,0,1,1.845-2.031h85.418a1.946,1.946,0,0,1,1.845,2.031l9.6,52.028A1.943,1.943,0,0,1,113.062,163.711Z" transform="translate(-13.558 -105.257)" fill="#2c2e39"/>
          </g>
          <g id="WOMAN-2" data-name="WOMAN" transform="translate(51.198)">
            <g id="LEGS-3" data-name="LEGS" transform="translate(9.942 120.017)">
              <g id="RIGHT" transform="translate(30.708 46.76)">
                <g id="FOOT" transform="translate(12.234 66.277)">
                  <path id="Path_490" data-name="Path 490" d="M569.7,1185.511l2.665-18.3c-8.875,1-12.863,0-12.863,0l3.035,13.9c-.066,2.255-4.8,11.3-7.3,12.06S564.194,1196.257,569.7,1185.511Z" transform="translate(-548.63 -1167.21)" fill="#ffcfc9"/>
                  <path id="Path_491" data-name="Path 491" d="M523.626,1259.615h21.766s3.715-7,3.135-11.656c-.742-6-4.05-6.7-4.05-6.7-3.053,0-2.267,7.613-8.093,10.266-2.9,1.322-5.386.492-7.9,1.258A6.328,6.328,0,0,0,523.626,1259.615Z" transform="translate(-523.592 -1226.455)" fill="#3f4d90"/>
                </g>
                <path id="LEG" d="M462.4,835.7c1.933,3.543,14.315,28.427,23.111,66.277,0,0,4.124,1.3,12.863,0,0,0,7.959-45.807-.814-60.443Z" transform="translate(-462.4 -835.7)" fill="#172a88"/>
              </g>
              <g id="LEFT">
                <path id="LEG-2" data-name="LEG" d="M408.6,601.81s12.489,31.28,5.812,43.208c-11.128,19.863-74.906,3.553-74.906,3.553s13.925,17.108-2.271,65.975c0,0-.584,1.987-13.1.4,0,0-15.338-70.474-15.34-85.492,0-12.3,21.992-16.122,57.952-13.539,0,0,4.75-4.266,8.329-13.2C375.081,602.708,385.557,605.982,408.6,601.81Z" transform="translate(-308.8 -601.81)" fill="#172a88"/>
                <g id="FOOT-2" data-name="FOOT" transform="translate(4.757 113.038)">
                  <path id="Path_492" data-name="Path 492" d="M378.7,1185.511l2.665-18.3c-8.875,1-13.063,0-13.063,0l3.235,13.9c-.066,2.255-4.8,11.3-7.3,12.06S373.194,1196.257,378.7,1185.511Z" transform="translate(-357.63 -1167.21)" fill="#ffcfc9"/>
                  <path id="Path_493" data-name="Path 493" d="M332.626,1259.615h21.766s3.715-7,3.135-11.656c-.742-6-4.05-6.7-4.05-6.7-3.053,0-2.267,7.613-8.093,10.266-2.9,1.322-5.386.492-7.9,1.258A6.328,6.328,0,0,0,332.626,1259.615Z" transform="translate(-332.592 -1226.455)" fill="#3f4d90"/>
                </g>
              </g>
            </g>
            <g id="BLOUSE-2" data-name="BLOUSE" transform="translate(17.849 46.795)">
              <path id="BLOUSE-3" data-name="BLOUSE" d="M449.266,265.283c-3.507,14.327-8.4,39.357-8.535,42.752s-23.921,5.564-34.507,2.443c0,0-2.925-16.822-3.657-25.934-5.548,7.8-11.208,13.855-15.054,13.855-14.115,0-37.4-7.915-39.163-9.814l1.026-5.338c5.836.136,34.473-3.311,34.473-3.311S395.228,250.982,402.67,245l.032-.028c4.886-4.51,17.571-5.956,20.414-6.656,2.941-.724,17.939-2.759,17.939-2.759C446.143,238.847,452.387,252.524,449.266,265.283Z" transform="translate(-348.35 -235.56)" fill="#f3e7dd"/>
              <g id="PATTERN" transform="translate(3.761 1.312)">
                <path id="Path_494" data-name="Path 494" d="M626.547,272.058a1.643,1.643,0,0,1-2.887,1.072,15.553,15.553,0,0,1,2.775-1.659A1.6,1.6,0,0,1,626.547,272.058Z" transform="translate(-572.379 -265.602)" fill="#fff"/>
                <circle id="Ellipse_62" data-name="Ellipse 62" cx="1.641" cy="1.641" r="1.641" transform="translate(57.668 4.816)" fill="#fff"/>
                <circle id="Ellipse_63" data-name="Ellipse 63" cx="1.641" cy="1.641" r="1.641" transform="translate(64.454 4.816)" fill="#fff"/>
                <circle id="Ellipse_64" data-name="Ellipse 64" cx="1.641" cy="1.641" r="1.641" transform="translate(71.237 4.816)" fill="#fff"/>
                <circle id="Ellipse_65" data-name="Ellipse 65" cx="1.641" cy="1.641" r="1.641" transform="translate(78.023 4.816)" fill="#fff"/>
                <circle id="Ellipse_66" data-name="Ellipse 66" cx="1.641" cy="1.641" r="1.641" transform="translate(84.806 4.816)" fill="#fff"/>
                <path id="Path_495" data-name="Path 495" d="M828.549,268.1h0a1.641,1.641,0,1,1-1.619-1.907,1.6,1.6,0,0,1,.8.2C828.008,266.951,828.283,267.5,828.549,268.1Z" transform="translate(-733.697 -261.377)" fill="#fff"/>
                <path id="Path_496" data-name="Path 496" d="M608.193,290.871a1.639,1.639,0,0,1-3.233.4,25.048,25.048,0,0,1,1.665-2.031A1.639,1.639,0,0,1,608.193,290.871Z" transform="translate(-557.418 -279.82)" fill="#fff"/>
                <circle id="Ellipse_67" data-name="Ellipse 67" cx="1.641" cy="1.641" r="1.641" transform="translate(54.276 9.412)" fill="#fff"/>
                <circle id="Ellipse_68" data-name="Ellipse 68" cx="1.641" cy="1.641" r="1.641" transform="translate(61.061 9.412)" fill="#fff"/>
                <circle id="Ellipse_69" data-name="Ellipse 69" cx="1.641" cy="1.641" r="1.641" transform="translate(67.844 9.412)" fill="#fff"/>
                <circle id="Ellipse_70" data-name="Ellipse 70" cx="1.641" cy="1.641" r="1.641" transform="translate(74.63 9.412)" fill="#fff"/>
                <circle id="Ellipse_71" data-name="Ellipse 71" cx="1.641" cy="1.641" r="1.641" transform="translate(81.413 9.412)" fill="#fff"/>
                <circle id="Ellipse_72" data-name="Ellipse 72" cx="1.641" cy="1.641" r="1.641" transform="translate(88.199 9.412)" fill="#fff"/>
                <path id="Path_497" data-name="Path 497" d="M844.19,292.991a1.426,1.426,0,0,1-.28.026,1.641,1.641,0,0,1-.652-3.147C843.616,290.87,843.92,291.913,844.19,292.991Z" transform="translate(-747.284 -280.324)" fill="#fff"/>
                <path id="Path_498" data-name="Path 498" d="M710,249.426a1.641,1.641,0,0,1-3.233.4c1.387-.25,2.485-.44,3.109-.6l.106-.026A1.168,1.168,0,0,1,710,249.426Z" transform="translate(-638.874 -247.785)" fill="#fff"/>
                <path id="Path_499" data-name="Path 499" d="M743.733,245.193a1.641,1.641,0,1,1-3-.908c.748-.122,1.555-.246,2.4-.376a1.64,1.64,0,0,1,.6,1.284Z" transform="translate(-665.82 -243.552)" fill="#fff"/>
                <circle id="Ellipse_73" data-name="Ellipse 73" cx="1.641" cy="1.641" r="1.641" transform="translate(81.413)" fill="#fff"/>
                <circle id="Ellipse_74" data-name="Ellipse 74" cx="1.641" cy="1.641" r="1.641" transform="translate(88.199)" fill="#fff"/>
                <circle id="Ellipse_75" data-name="Ellipse 75" cx="1.641" cy="1.641" r="1.641" transform="translate(50.883 14.445)" fill="#fff"/>
                <path id="Path_500" data-name="Path 500" d="M591.359,316.011a1.639,1.639,0,0,1-3.2.524q.652-1.116,1.3-2.143a1.35,1.35,0,0,1,.256-.022A1.643,1.643,0,0,1,591.359,316.011Z" transform="translate(-543.977 -299.925)" fill="#fff"/>
                <circle id="Ellipse_76" data-name="Ellipse 76" cx="1.641" cy="1.641" r="1.641" transform="translate(57.668 14.445)" fill="#fff"/>
                <circle id="Ellipse_77" data-name="Ellipse 77" cx="1.641" cy="1.641" r="1.641" transform="translate(64.454 14.445)" fill="#fff"/>
                <circle id="Ellipse_78" data-name="Ellipse 78" cx="1.641" cy="1.641" r="1.641" transform="translate(71.237 14.445)" fill="#fff"/>
                <circle id="Ellipse_79" data-name="Ellipse 79" cx="1.641" cy="1.641" r="1.641" transform="translate(78.023 14.445)" fill="#fff"/>
                <circle id="Ellipse_80" data-name="Ellipse 80" cx="1.641" cy="1.641" r="1.641" transform="translate(84.806 14.445)" fill="#fff"/>
                <circle id="Ellipse_81" data-name="Ellipse 81" cx="1.641" cy="1.641" r="1.641" transform="translate(91.592 14.445)" fill="#fff"/>
                <circle id="Ellipse_82" data-name="Ellipse 82" cx="1.641" cy="1.641" r="1.641" transform="translate(47.492 19.041)" fill="#fff"/>
                <path id="Path_501" data-name="Path 501" d="M576.333,339.233a1.641,1.641,0,0,1-2.713,1.244c.494-.96,1-1.905,1.5-2.827a1.64,1.64,0,0,1,1.212,1.583Z" transform="translate(-532.344 -318.551)" fill="#fff"/>
                <circle id="Ellipse_83" data-name="Ellipse 83" cx="1.641" cy="1.641" r="1.641" transform="translate(54.276 19.041)" fill="#fff"/>
                <circle id="Ellipse_84" data-name="Ellipse 84" cx="1.641" cy="1.641" r="1.641" transform="translate(61.061 19.041)" fill="#fff"/>
                <circle id="Ellipse_85" data-name="Ellipse 85" cx="1.641" cy="1.641" r="1.641" transform="translate(67.844 19.041)" fill="#fff"/>
                <circle id="Ellipse_86" data-name="Ellipse 86" cx="1.641" cy="1.641" r="1.641" transform="translate(74.63 19.041)" fill="#fff"/>
                <circle id="Ellipse_87" data-name="Ellipse 87" cx="1.641" cy="1.641" r="1.641" transform="translate(81.413 19.041)" fill="#fff"/>
                <circle id="Ellipse_88" data-name="Ellipse 88" cx="1.641" cy="1.641" r="1.641" transform="translate(88.199 19.041)" fill="#fff"/>
                <path id="Path_502" data-name="Path 502" d="M845.268,339.9h0a1.641,1.641,0,1,1-.034-1.871h0Q845.276,338.967,845.268,339.9Z" transform="translate(-747.277 -318.313)" fill="#fff"/>
                <circle id="Ellipse_89" data-name="Ellipse 89" cx="1.641" cy="1.641" r="1.641" transform="translate(50.883 23.857)" fill="#fff"/>
                <circle id="Ellipse_90" data-name="Ellipse 90" cx="1.641" cy="1.641" r="1.641" transform="translate(57.668 23.857)" fill="#fff"/>
                <circle id="Ellipse_91" data-name="Ellipse 91" cx="1.641" cy="1.641" r="1.641" transform="translate(64.454 23.857)" fill="#fff"/>
                <circle id="Ellipse_92" data-name="Ellipse 92" cx="1.641" cy="1.641" r="1.641" transform="translate(71.237 23.857)" fill="#fff"/>
                <circle id="Ellipse_93" data-name="Ellipse 93" cx="1.641" cy="1.641" r="1.641" transform="translate(78.023 23.857)" fill="#fff"/>
                <circle id="Ellipse_94" data-name="Ellipse 94" cx="1.641" cy="1.641" r="1.641" transform="translate(84.806 23.857)" fill="#fff"/>
                <circle id="Ellipse_95" data-name="Ellipse 95" cx="1.641" cy="1.641" r="1.641" transform="translate(91.592 23.857)" fill="#fff"/>
                <circle id="Ellipse_96" data-name="Ellipse 96" cx="1.641" cy="1.641" r="1.641" transform="translate(47.492 28.451)" fill="#fff"/>
                <circle id="Ellipse_97" data-name="Ellipse 97" cx="1.641" cy="1.641" r="1.641" transform="translate(54.276 28.451)" fill="#fff"/>
                <circle id="Ellipse_98" data-name="Ellipse 98" cx="1.641" cy="1.641" r="1.641" transform="translate(61.061 28.451)" fill="#fff"/>
                <circle id="Ellipse_99" data-name="Ellipse 99" cx="1.641" cy="1.641" r="1.641" transform="translate(67.844 28.451)" fill="#fff"/>
                <circle id="Ellipse_100" data-name="Ellipse 100" cx="1.641" cy="1.641" r="1.641" transform="translate(74.63 28.451)" fill="#fff"/>
                <circle id="Ellipse_101" data-name="Ellipse 101" cx="1.641" cy="1.641" r="1.641" transform="translate(81.413 28.451)" fill="#fff"/>
                <circle id="Ellipse_102" data-name="Ellipse 102" cx="1.641" cy="1.641" r="1.641" transform="translate(88.199 28.451)" fill="#fff"/>
                <path id="Path_503" data-name="Path 503" d="M844.454,384.508c-.248,1.012-.5,2.075-.762,3.183a1.641,1.641,0,1,1,.762-3.183Z" transform="translate(-747.323 -355.979)" fill="#fff"/>
                <circle id="Ellipse_103" data-name="Ellipse 103" cx="1.641" cy="1.641" r="1.641" transform="translate(50.883 33.485)" fill="#fff"/>
                <circle id="Ellipse_104" data-name="Ellipse 104" cx="1.641" cy="1.641" r="1.641" transform="translate(44.099 33.485)" fill="#fff"/>
                <circle id="Ellipse_105" data-name="Ellipse 105" cx="1.641" cy="1.641" r="1.641" transform="translate(57.668 33.485)" fill="#fff"/>
                <circle id="Ellipse_106" data-name="Ellipse 106" cx="1.641" cy="1.641" r="1.641" transform="translate(64.454 33.485)" fill="#fff"/>
                <circle id="Ellipse_107" data-name="Ellipse 107" cx="1.641" cy="1.641" r="1.641" transform="translate(71.237 33.485)" fill="#fff"/>
                <circle id="Ellipse_108" data-name="Ellipse 108" cx="1.641" cy="1.641" r="1.641" transform="translate(78.023 33.485)" fill="#fff"/>
                <circle id="Ellipse_109" data-name="Ellipse 109" cx="1.641" cy="1.641" r="1.641" transform="translate(84.806 33.485)" fill="#fff"/>
                <circle id="Ellipse_110" data-name="Ellipse 110" cx="1.641" cy="1.641" r="1.641" transform="translate(91.592 33.485)" fill="#fff"/>
                <circle id="Ellipse_111" data-name="Ellipse 111" cx="1.641" cy="1.641" r="1.641" transform="translate(47.492 38.082)" fill="#fff"/>
                <circle id="Ellipse_112" data-name="Ellipse 112" cx="1.641" cy="1.641" r="1.641" transform="translate(44.099 23.857)" fill="#fff"/>
                <circle id="Ellipse_113" data-name="Ellipse 113" cx="1.641" cy="1.641" r="1.641" transform="translate(40.707 28.451)" fill="#fff"/>
                <circle id="Ellipse_114" data-name="Ellipse 114" cx="1.641" cy="1.641" r="1.641" transform="translate(37.314 33.485)" fill="#fff"/>
                <circle id="Ellipse_115" data-name="Ellipse 115" cx="1.641" cy="1.641" r="1.641" transform="translate(40.707 38.082)" fill="#fff"/>
                <path id="Path_504" data-name="Path 504" d="M562.637,364.85A1.641,1.641,0,0,1,561,366.491a1.334,1.334,0,0,1-.256-.022c.446-.934.906-1.877,1.371-2.819A1.626,1.626,0,0,1,562.637,364.85Z" transform="translate(-522.039 -339.353)" fill="#fff"/>
                <circle id="Ellipse_116" data-name="Ellipse 116" cx="1.641" cy="1.641" r="1.641" transform="translate(33.923 38.082)" fill="#fff"/>
                <circle id="Ellipse_117" data-name="Ellipse 117" cx="1.641" cy="1.641" r="1.641" transform="translate(54.276 38.082)" fill="#fff"/>
                <circle id="Ellipse_118" data-name="Ellipse 118" cx="1.641" cy="1.641" r="1.641" transform="translate(61.061 38.082)" fill="#fff"/>
                <circle id="Ellipse_119" data-name="Ellipse 119" cx="1.641" cy="1.641" r="1.641" transform="translate(67.844 38.082)" fill="#fff"/>
                <circle id="Ellipse_120" data-name="Ellipse 120" cx="1.641" cy="1.641" r="1.641" transform="translate(74.63 38.082)" fill="#fff"/>
                <circle id="Ellipse_121" data-name="Ellipse 121" cx="1.641" cy="1.641" r="1.641" transform="translate(81.413 38.082)" fill="#fff"/>
                <circle id="Ellipse_122" data-name="Ellipse 122" cx="1.641" cy="1.641" r="1.641" transform="translate(88.199 38.082)" fill="#fff"/>
                <circle id="Ellipse_123" data-name="Ellipse 123" cx="1.641" cy="1.641" r="1.641" transform="translate(50.883 42.896)" fill="#fff"/>
                <circle id="Ellipse_124" data-name="Ellipse 124" cx="1.641" cy="1.641" r="1.641" transform="translate(57.668 42.896)" fill="#fff"/>
                <circle id="Ellipse_125" data-name="Ellipse 125" cx="1.641" cy="1.641" r="1.641" transform="translate(64.454 42.896)" fill="#fff"/>
                <circle id="Ellipse_126" data-name="Ellipse 126" cx="1.641" cy="1.641" r="1.641" transform="translate(71.237 42.896)" fill="#fff"/>
                <circle id="Ellipse_127" data-name="Ellipse 127" cx="1.641" cy="1.641" r="1.641" transform="translate(78.023 42.896)" fill="#fff"/>
                <circle id="Ellipse_128" data-name="Ellipse 128" cx="1.641" cy="1.641" r="1.641" transform="translate(84.806 42.896)" fill="#fff"/>
                <path id="Path_505" data-name="Path 505" d="M827.541,456.8q-.334,1.577-.664,3.159a1.641,1.641,0,1,1,.664-3.159Z" transform="translate(-733.687 -413.778)" fill="#fff"/>
                <path id="Path_506" data-name="Path 506" d="M606.349,479.662a1.625,1.625,0,0,1,1.128.45h0q-.966,1.349-1.931,2.621a1.641,1.641,0,0,1,.8-3.073Z" transform="translate(-557.215 -432.17)" fill="#fff"/>
                <circle id="Ellipse_129" data-name="Ellipse 129" cx="1.641" cy="1.641" r="1.641" transform="translate(54.276 47.492)" fill="#fff"/>
                <circle id="Ellipse_130" data-name="Ellipse 130" cx="1.641" cy="1.641" r="1.641" transform="translate(61.061 47.492)" fill="#fff"/>
                <circle id="Ellipse_131" data-name="Ellipse 131" cx="1.641" cy="1.641" r="1.641" transform="translate(67.844 47.492)" fill="#fff"/>
                <circle id="Ellipse_132" data-name="Ellipse 132" cx="1.641" cy="1.641" r="1.641" transform="translate(74.63 47.492)" fill="#fff"/>
                <circle id="Ellipse_133" data-name="Ellipse 133" cx="1.641" cy="1.641" r="1.641" transform="translate(81.413 47.492)" fill="#fff"/>
                <circle id="Ellipse_134" data-name="Ellipse 134" cx="1.641" cy="1.641" r="1.641" transform="translate(88.199 47.492)" fill="#fff"/>
                <circle id="Ellipse_135" data-name="Ellipse 135" cx="1.641" cy="1.641" r="1.641" transform="translate(51.321 52.526)" fill="#fff"/>
                <path id="Path_507" data-name="Path 507" d="M590.237,505.094c-.708.872-1.411,1.7-2.1,2.467a1.641,1.641,0,0,1,1.255-2.711A1.6,1.6,0,0,1,590.237,505.094Z" transform="translate(-543.638 -452.324)" fill="#fff"/>
                <circle id="Ellipse_136" data-name="Ellipse 136" cx="1.641" cy="1.641" r="1.641" transform="translate(57.668 52.526)" fill="#fff"/>
                <circle id="Ellipse_137" data-name="Ellipse 137" cx="1.641" cy="1.641" r="1.641" transform="translate(64.454 52.526)" fill="#fff"/>
                <circle id="Ellipse_138" data-name="Ellipse 138" cx="1.641" cy="1.641" r="1.641" transform="translate(71.237 52.526)" fill="#fff"/>
                <circle id="Ellipse_139" data-name="Ellipse 139" cx="1.641" cy="1.641" r="1.641" transform="translate(78.023 52.526)" fill="#fff"/>
                <circle id="Ellipse_140" data-name="Ellipse 140" cx="1.641" cy="1.641" r="1.641" transform="translate(84.806 52.526)" fill="#fff"/>
                <circle id="Ellipse_141" data-name="Ellipse 141" cx="1.641" cy="1.641" r="1.641" transform="translate(44.099 42.896)" fill="#fff"/>
                <circle id="Ellipse_142" data-name="Ellipse 142" cx="1.641" cy="1.641" r="1.641" transform="translate(40.707 47.492)" fill="#fff"/>
                <circle id="Ellipse_143" data-name="Ellipse 143" cx="1.641" cy="1.641" r="1.641" transform="translate(37.314 52.526)" fill="#fff"/>
                <circle id="Ellipse_144" data-name="Ellipse 144" cx="1.641" cy="1.641" r="1.641" transform="translate(33.923 57.123)" fill="#fff"/>
                <circle id="Ellipse_145" data-name="Ellipse 145" cx="1.641" cy="1.641" r="1.641" transform="translate(37.314 42.896)" fill="#fff"/>
                <circle id="Ellipse_146" data-name="Ellipse 146" cx="1.641" cy="1.641" r="1.641" transform="translate(33.923 47.492)" fill="#fff"/>
                <circle id="Ellipse_147" data-name="Ellipse 147" cx="1.641" cy="1.641" r="1.641" transform="translate(30.531 52.526)" fill="#fff"/>
                <circle id="Ellipse_148" data-name="Ellipse 148" cx="1.641" cy="1.641" r="1.641" transform="translate(27.138 57.123)" fill="#fff"/>
                <circle id="Ellipse_149" data-name="Ellipse 149" cx="1.641" cy="1.641" r="1.641" transform="translate(30.531 42.896)" fill="#fff"/>
                <circle id="Ellipse_150" data-name="Ellipse 150" cx="1.641" cy="1.641" r="1.641" transform="translate(27.138 47.492)" fill="#fff"/>
                <circle id="Ellipse_151" data-name="Ellipse 151" cx="1.641" cy="1.641" r="1.641" transform="translate(23.745 52.526)" fill="#fff"/>
                <path id="Path_508" data-name="Path 508" d="M472.229,529.4a1.635,1.635,0,0,1-.74,1.372c-.754-.142-1.511-.3-2.265-.456a1.641,1.641,0,1,1,3-.916Z" transform="translate(-448.592 -470.649)" fill="#fff"/>
                <path id="Path_509" data-name="Path 509" d="M489.223,461.338a1.641,1.641,0,0,1-3.283,0,1.6,1.6,0,0,1,.1-.556l2.913-.332A1.625,1.625,0,0,1,489.223,461.338Z" transform="translate(-462.193 -416.8)" fill="#fff"/>
                <circle id="Ellipse_152" data-name="Ellipse 152" cx="1.641" cy="1.641" r="1.641" transform="translate(20.352 47.492)" fill="#fff"/>
                <circle id="Ellipse_153" data-name="Ellipse 153" cx="1.641" cy="1.641" r="1.641" transform="translate(16.962 52.526)" fill="#fff"/>
                <path id="Path_510" data-name="Path 510" d="M439.017,529.443a.54.54,0,0,1,0,.058c-1.048-.252-2.087-.516-3.107-.788a1.639,1.639,0,0,1,3.107.73Z" transform="translate(-422.165 -470.689)" fill="#fff"/>
                <path id="Path_511" data-name="Path 511" d="M455.339,464.266a1.641,1.641,0,0,1-3.269.2l3.261-.356A1.3,1.3,0,0,1,455.339,464.266Z" transform="translate(-435.094 -419.729)" fill="#fff"/>
                <circle id="Ellipse_154" data-name="Ellipse 154" cx="1.641" cy="1.641" r="1.641" transform="translate(13.569 47.492)" fill="#fff"/>
                <circle id="Ellipse_155" data-name="Ellipse 155" cx="1.641" cy="1.641" r="1.641" transform="translate(10.176 52.526)" fill="#fff"/>
                <path id="Path_512" data-name="Path 512" d="M422.275,467.82a1.639,1.639,0,0,1-2.915.3C420.32,468.02,421.287,467.922,422.275,467.82Z" transform="translate(-408.924 -422.697)" fill="#fff"/>
                <circle id="Ellipse_156" data-name="Ellipse 156" cx="1.641" cy="1.641" r="1.641" transform="translate(6.783 47.492)" fill="#fff"/>
                <path id="Path_513" data-name="Path 513" d="M387.413,506.506a1.638,1.638,0,0,1-.966,1.494c-.74-.242-1.449-.482-2.123-.716a1.641,1.641,0,1,1,3.089-.778Z" transform="translate(-380.737 -452.338)" fill="#fff"/>
                <circle id="Ellipse_157" data-name="Ellipse 157" cx="1.641" cy="1.641" r="1.641" transform="translate(0 47.492)" fill="#fff"/>
                <circle id="Ellipse_158" data-name="Ellipse 158" cx="1.641" cy="1.641" r="1.641" transform="translate(54.276 57.123)" fill="#fff"/>
                <circle id="Ellipse_159" data-name="Ellipse 159" cx="1.641" cy="1.641" r="1.641" transform="translate(61.061 57.123)" fill="#fff"/>
                <circle id="Ellipse_160" data-name="Ellipse 160" cx="1.641" cy="1.641" r="1.641" transform="translate(67.844 57.123)" fill="#fff"/>
                <circle id="Ellipse_161" data-name="Ellipse 161" cx="1.641" cy="1.641" r="1.641" transform="translate(74.63 57.123)" fill="#fff"/>
                <circle id="Ellipse_162" data-name="Ellipse 162" cx="1.641" cy="1.641" r="1.641" transform="translate(81.413 57.123)" fill="#fff"/>
                <path id="Path_514" data-name="Path 514" d="M811,528.224c-.184.96-.362,1.891-.53,2.787a1.586,1.586,0,0,1-.544.1A1.643,1.643,0,1,1,811,528.224Z" transform="translate(-720.091 -470.702)" fill="#fff"/>
                <path id="Path_515" data-name="Path 515" d="M630.4,553.561a1.637,1.637,0,0,1-1.429,1.625c-.162-1.036-.328-2.123-.494-3.241a1.456,1.456,0,0,1,.282-.026A1.643,1.643,0,0,1,630.4,553.561Z" transform="translate(-576.236 -489.983)" fill="#fff"/>
                <circle id="Ellipse_163" data-name="Ellipse 163" cx="1.641" cy="1.641" r="1.641" transform="translate(57.668 61.937)" fill="#fff"/>
                <circle id="Ellipse_164" data-name="Ellipse 164" cx="1.641" cy="1.641" r="1.641" transform="translate(64.454 61.937)" fill="#fff"/>
                <circle id="Ellipse_165" data-name="Ellipse 165" cx="1.641" cy="1.641" r="1.641" transform="translate(71.237 61.937)" fill="#fff"/>
                <circle id="Ellipse_166" data-name="Ellipse 166" cx="1.641" cy="1.641" r="1.641" transform="translate(78.023 61.937)" fill="#fff"/>
                <circle id="Ellipse_167" data-name="Ellipse 167" cx="1.641" cy="1.641" r="1.641" transform="translate(84.806 61.937)" fill="#fff"/>
                <circle id="Ellipse_168" data-name="Ellipse 168" cx="1.641" cy="1.641" r="1.641" transform="translate(54.276 66.533)" fill="#fff"/>
                <circle id="Ellipse_169" data-name="Ellipse 169" cx="1.641" cy="1.641" r="1.641" transform="translate(61.061 66.533)" fill="#fff"/>
                <circle id="Ellipse_170" data-name="Ellipse 170" cx="1.641" cy="1.641" r="1.641" transform="translate(67.844 66.533)" fill="#fff"/>
                <circle id="Ellipse_171" data-name="Ellipse 171" cx="1.641" cy="1.641" r="1.641" transform="translate(74.63 66.533)" fill="#fff"/>
                <circle id="Ellipse_172" data-name="Ellipse 172" cx="1.641" cy="1.641" r="1.641" transform="translate(81.413 66.533)" fill="#fff"/>
                <path id="Path_516" data-name="Path 516" d="M809.4,575.46c-.184,1.1-.334,2.049-.438,2.8a1.641,1.641,0,0,1,.438-2.8Z" transform="translate(-720.156 -508.817)" fill="#fff"/>
                <path id="Path_517" data-name="Path 517" d="M658.87,601.726a1.639,1.639,0,0,1-.97,1.5h0c-.582-.062-1.148-.138-1.7-.218a1.641,1.641,0,1,1,2.671-1.28Z" transform="translate(-597.925 -528.519)" fill="#fff"/>
                <circle id="Ellipse_173" data-name="Ellipse 173" cx="1.641" cy="1.641" r="1.641" transform="translate(64.454 71.567)" fill="#fff"/>
                <circle id="Ellipse_174" data-name="Ellipse 174" cx="1.641" cy="1.641" r="1.641" transform="translate(71.237 71.567)" fill="#fff"/>
                <path id="Path_518" data-name="Path 518" d="M760.71,601.73a1.644,1.644,0,0,1-.306.956c-.752.12-1.539.232-2.357.33h0a1.641,1.641,0,1,1,2.665-1.286Z" transform="translate(-679.405 -528.524)" fill="#fff"/>
                <path id="Path_519" data-name="Path 519" d="M794.342,600.742a11.433,11.433,0,0,1-2.951,1.144,1.572,1.572,0,0,1,0-.168,1.639,1.639,0,0,1,2.959-.976Z" transform="translate(-706.575 -528.511)" fill="#fff"/>
              </g>
              <path id="SHADOW" d="M620.6,396.518c5.848-7.771,9.336-15.368,12.731-22.078" transform="translate(-566.17 -346.674)" fill="none"/>
            </g>
            <path id="HAND" d="M265.781,470.151a38.775,38.775,0,0,1,12.277.568l-.662,5.8s-3.291,1.611-5.464.718-3.813-2.653-5.36-2.171-3.451,1.7-4.38,1.479a9.829,9.829,0,0,1-3.123-1.294C259.44,474.57,263.386,470.893,265.781,470.151Z" transform="translate(-259.07 -376.252)" fill="#ffcfc9"/>
            <g id="HEAD-3" data-name="HEAD" transform="translate(76.213)">
              <path id="NECK-2" data-name="NECK" d="M708.75,159.564c.542,2.171,2.713,11.582,2.713,13.029s14.936-.228,17.831-2.761a34.243,34.243,0,0,1-7.335-16.422Z" transform="translate(-695.061 -123.039)" fill="#ffcfc9"/>
              <path id="HEAD-4" data-name="HEAD" d="M684.909,81.558s-4.556,9.5-14.023,8.747a1.919,1.919,0,0,1-1.529-.984c-1.3-2.359-4.746-9-4.62-12.937.156-4.84,2.215-13.815,2.215-13.815s11.528-2.387,17.927,8.3A9.71,9.71,0,0,1,684.909,81.558Z" transform="translate(-659.844 -50.178)" fill="#ffcfc9"/>
              <g id="GLASSES" transform="translate(0 20.019)">
                <line id="Line_78" data-name="Line 78" x1="16.744" transform="translate(0 2.777)" fill="none"/>
                <ellipse id="Ellipse_175" data-name="Ellipse 175" cx="1.641" cy="4.55" rx="1.641" ry="4.55" transform="translate(0.132)" fill="none"/>
              </g>
              <g id="HAIR-2" data-name="HAIR" transform="translate(0.551)">
                <path id="Path_520" data-name="Path 520" d="M694.289,42.114a162.332,162.332,0,0,1-31.174,5.01s-6.228-6.45.948-14.409c4.1-4.55-.926-10.318-.926-10.318a54.406,54.406,0,0,0-12.577-2c-2.281-3.353-2.343-8.113,4-12.813C661.127,2.723,674-2.134,681.6,5.566c4.352,4.4,1.4,13.215,6.969,15.89C706.1,29.854,694.289,42.114,694.289,42.114Z" transform="translate(-647.928 -1.531)" fill="#3f4d90"/>
                <path id="Path_521" data-name="Path 521" d="M686.11,7.545c6.576-4.862,19.443-9.718,27.04-2.019,4.352,4.4,1.835,14.746,7.4,17.421" transform="translate(-677.499 -1.499)" fill="none"/>
                <path id="Path_522" data-name="Path 522" d="M644.139,45.425c-2.281-3.353-1.326-9.1,5.76-12.6" transform="translate(-643.037 -26.566)" fill="none"/>
                <path id="Path_523" data-name="Path 523" d="M696.738,127.176s-5.354-6.845,2.331-14.315c4.4-4.27.63-11.232.63-11.232" transform="translate(-684.55 -81.611)" fill="none"/>
              </g>
            </g>
          </g>
          <g id="CHAIR-2" data-name="CHAIR" transform="translate(91.349 85.086)">
            <path id="Path_524" data-name="Path 524" d="M566.114,430.3c-1.062,4-15.274,29.789-16.684,66.205a19.593,19.593,0,0,1-19.569,18.847H465.74a5.137,5.137,0,0,0-4.6,2.3.676.676,0,0,1-1.232-.382v-3.317c0-4.4,3.577-8.773,7.983-8.761l19.577.016c8.765.026,13.953-6.106,14.285-14.864,1.224-32.348,11.628-52.822,16.342-59.452a9.051,9.051,0,0,1,7.377-3.8h39.015C566.136,427.092,566.538,428.7,566.114,430.3Z" transform="translate(-459.908 -427.09)" fill="#fff"/>
            <path id="Path_525" data-name="Path 525" d="M565.558,441.94H527.417a8.6,8.6,0,0,0-7.007,3.6c-4.494,6.322-14.077,32.042-15.25,61.157a13.707,13.707,0,0,1-13.7,13.143H467.2a7.3,7.3,0,0,0-7.3,7.3" transform="translate(-459.9 -438.971)" fill="none"/>
            <rect id="Rectangle_71" data-name="Rectangle 71" width="6.997" height="64.4" transform="translate(39.975 101.378)" fill="#f0e1d4"/>
            <path id="Path_526" data-name="Path 526" d="M602.43,1263.521a6.58,6.58,0,0,1,6.3-6.831h17.393a6.582,6.582,0,0,1,6.3,6.831" transform="translate(-573.935 -1090.832)" fill="none"/>
            <path id="Path_527" data-name="Path 527" d="M639,869.14h15.328v9.612a5.516,5.516,0,0,1-5.516,5.516H644.52A5.516,5.516,0,0,1,639,878.75Z" transform="translate(-603.193 -780.763)" fill="#fff"/>
            <path id="Path_528" data-name="Path 528" d="M535.36,1263.478a6.8,6.8,0,0,1,6.8-6.8H587.54a6.8,6.8,0,0,1,6.8,6.8" transform="translate(-520.274 -1090.824)" fill="none"/>
          </g>
        </g>
      </g>
    </g>
  </g>
</svg>
