<svg id="Group_51" data-name="Group 51" xmlns="http://www.w3.org/2000/svg" width="24" height="24" viewBox="0 0 24 24">
  <path id="Path_27" data-name="Path 27" d="M0,0H24V24H0Z" fill="none"/>
  <path id="Path_28" data-name="Path 28" d="M5,12l5,5L20,7" fill="none" stroke="#003904" stroke-linecap="round" stroke-linejoin="round" stroke-width="2"/>
</svg>
