<svg id="event-24px" xmlns="http://www.w3.org/2000/svg" width="24" height="24.5" viewBox="0 0 24 24.5">
  <path id="Path_1855" data-name="Path 1855" d="M0,0H24V24.5H0Z" fill="none"/>
  <path id="Path_1856" data-name="Path 1856" d="M17,12.275H12V17.4h5ZM16,1V3.05H8V1H6V3.05H5A2.017,2.017,0,0,0,3.01,5.1L3,19.45A2.025,2.025,0,0,0,5,21.5H19a2.031,2.031,0,0,0,2-2.05V5.1a2.031,2.031,0,0,0-2-2.05H18V1Zm3,18.45H5V8.175H19Z" fill="#4385f5"/>
</svg>
