<svg id="Group_2265" data-name="Group 2265" xmlns="http://www.w3.org/2000/svg" width="16" height="18" viewBox="0 0 16 18">
  <g id="Group_2264" data-name="Group 2264">
    <path id="Path_1787" data-name="Path 1787" d="M17.222,3.8h-.889V2.9a.9.9,0,0,0-.889-.9h0a.9.9,0,0,0-.889.9v.9H7.444V2.9A.9.9,0,0,0,6.556,2h0a.9.9,0,0,0-.889.9v.9H4.778A1.781,1.781,0,0,0,3.009,5.6L3,18.2A1.789,1.789,0,0,0,4.778,20H17.222A1.794,1.794,0,0,0,19,18.2V5.6A1.794,1.794,0,0,0,17.222,3.8Zm0,14.4H4.778v-9H17.222Z" transform="translate(-3 -2)" fill="#4385f5"/>
  </g>
</svg>
